{
    "identityPoolName": "cognito26e5cb5e_identitypool_26e5cb5e",
    "allowUnauthenticatedIdentities": true,
    "thirdPartyAuth": false,
    "lambdaLogPolicy": "cognito26e5cb5e_lambda_log_policy",
    "openIdLambdaRoleName": "cognito26e5cb5e_openid_lambda_role",
    "openIdRolePolicy": "cognito26e5cb5e_openid_pass_role_policy",
    "openIdLambdaIAMPolicy": "cognito26e5cb5e_openid_lambda_iam_policy",
    "openIdLogPolicy": "cognito26e5cb5e_openid_lambda_log_policy",
    "userPoolName": "cognito26e5cb5e_userpool_26e5cb5e",
    "autoVerifiedAttributes": [
        "email"
    ],
    "mfaConfiguration": "OFF",
    "mfaTypes": [
        "SMS Text Message"
    ],
    "roleName": "cognito26e5cb5e_sns-role",
    "roleExternalId": "cognito26e5cb5e_role_external_id",
    "policyName": "cognito26e5cb5e-sns-policy",
    "smsAuthenticationMessage": "Your authentication code is {####}",
    "smsVerificationMessage": "Your verification code is {####}",
    "emailVerificationSubject": "Your verification code",
    "emailVerificationMessage": "Your verification code is {####}",
    "defaultPasswordPolicy": false,
    "passwordPolicyMinLength": 8,
    "passwordPolicyCharacters": [
        "Requires Lowercase",
        "Requires Uppercase",
        "Requires Numbers",
        "Requires Symbols"
    ],
    "requiredAttributes": [
        "email"
    ],
    "userpoolClientName": "cognito26e5cb5e_app_client",
    "userpoolClientGenerateSecret": true,
    "userpoolClientRefreshTokenValidity": 30,
    "userpoolClientReadAttributes": [
        "email"
    ],
    "mfaLambdaRole": "cognito26e5cb5e_totp_lambda_role",
    "mfaLambdaLogPolicy": "cognito26e5cb5e_totp_lambda_log_policy",
    "mfaPassRolePolicy": "cognito26e5cb5e_totp_pass_role_policy",
    "mfaLambdaIAMPolicy": "cognito26e5cb5e_totp_lambda_iam_policy",
    "userpoolClientLambdaRole": "cognito26e5cb5e_userpoolclient_lambda_role",
    "userpoolClientLogPolicy": "cognito26e5cb5e_userpoolclient_lambda_log_policy",
    "userpoolClientLambdaPolicy": "cognito26e5cb5e_userpoolclient_lambda_iam_policy",
    "userpoolClientSetAttributes": false,
    "resourceName": "cognito26e5cb5e",
    "authSelections": "identityPoolAndUserPool",
    "useDefault": "default",
    "unAuthRoleName": "ay-20181128055739-unauthRole",
    "authRoleName": "ay-20181128055739-authRole",
    "unAuthRoleArn": "arn:aws:iam::393483800856:role/ay-20181128055739-unauthRole",
    "authRoleArn": "arn:aws:iam::393483800856:role/ay-20181128055739-authRole"
}